[{
    "name": "dress",
    "price": 2000,
    "url": "https://lirikamatoshi.com/cdn/shop/products/20_375a8763-f5d7-4184-a352-4523ef713733_3000x.jpg?v=1576267132",
    "articul": "#202",
    "color": "blue"
},

{
    "name": "T-Shirt",
    "price": 1500,
    "url": "https://cms.cloudinary.vpsvc.com/images/c_scale,dpr_auto,f_auto,q_auto:best,t_productPageHeroGalleryTransformation_v2,w_auto/legacy_dam/en-us/S001341042/Gildan%C2%AE-Women%E2%80%99s-T-shirt-Short-Sleeve-ANZ-Marquee-001?cb=f1b7685ecfcb2edeaeee544350a7700640e10c83",
    "articul": "#201",
    "color": "red"

},

{
    "name": "Cap",
    "price": 900,
    "url": "https://cms.cloudinary.vpsvc.com/images/c_scale,dpr_auto,f_auto,q_auto:best,t_productPageHeroGalleryTransformation_v2,w_auto/legacy_dam/en-us/S001621716/MXP21284-Vistaprint-printed-cap-marquee-003?cb=6d95a0fd3b111c44e16f0a24721cff13a3bf069f",
    "articul": "#200",
    "color": "white"
    
},

{
    "name": "Jackets",
    "price": 4000,
    "url": "https://cms.cloudinary.vpsvc.com/images/c_scale,dpr_auto,f_auto,q_auto:best,t_productPageHeroGalleryTransformation_v2,w_auto/legacy_dam/en-us/S001489194/MVPSPPAG-627-NA-Port-Authority-Women-Value-Fleece-Jacket-Tier3-Marquee-001?cb=df841f7d383bc043662df45e85c6f949437a8121",
    "articul": "#203",
    "color": "green"
    
},

{
    "name": "Polo shirts",
    "price": 2500,
    "url": "https://lacoste.co.nz/dw/image/v2/BDFS_PRD/on/demandware.static/-/Sites-lacoste-master-catalog/default/dw26e722e5/images/PF5462/PF5462031_1.jpg?sw=1000&sh=1000",
    "articul": "#204",
    "color": "black"
    
},

{
    "name": "Tracksuits",
    "price": 4500,
    "url": "https://lacoste.co.nz/dw/image/v2/BDFS_PRD/on/demandware.static/-/Sites-lacoste-master-catalog/default/dwce8a0680/images/SF3469/SF3469LGF_1.jpg?sw=1000&sh=1000",
    "articul": "#205",
    "color": "mint"
    
},

{
    "name": "Shorts",
    "price": 1900,
    "url": "https://lacoste.co.nz/dw/image/v2/BDFS_PRD/on/demandware.static/-/Sites-lacoste-master-catalog/default/dw49af9399/images/FF6944/FF6944K86_1.jpg?sw=1000&sh=1000",
    "articul": "#206",
    "color": "pink"
    
},

{
    "name": "Skirts",
    "price": 2300,
    "url": "https://lacoste.co.nz/dw/image/v2/BDFS_PRD/on/demandware.static/-/Sites-lacoste-master-catalog/default/dwf4be64ba/images/JF8050/JF8050S5H_1.jpg?sw=1000&sh=1000",
    "articul": "#207",
    "color": "orange"
    
},

{
    "name": "Coats",
    "price": 6500,
    "url": "https://lacoste.co.nz/dw/image/v2/BDFS_PRD/on/demandware.static/-/Sites-lacoste-master-catalog/default/dw60e826c2/images/BF5883/BF5883XFJ_1.jpg?sw=1000&sh=1000",
    "articul": "#208",
    "color": "beige"
    
},

{
    "name": "Knitwear",
    "price": 3100,
    "url": "https://lacoste.co.nz/dw/image/v2/BDFS_PRD/on/demandware.static/-/Sites-lacoste-master-catalog/default/dwb482c483/images/AF4952/AF4952R1T_1.jpg?sw=1000&sh=1000",
    "articul": "#209",
    "color": "mokko"
    
}]
